^C:\USERS\ANTHON_PC\DESKTOP\ANTHONGAR_LESSON13\MTSERVER\MTSERVER\HELPER.CPP
/c /ZI /nologo /W3 /WX- /diagnostics:classic /sdl /Od /Oy- /D _MBCS /Gm- /EHsc /RTC1 /MDd /GS /fp:precise /permissive- /Zc:wchar_t /Zc:forScope /Zc:inline /Fo"DEBUG\\" /Fd"DEBUG\VC141.PDB" /Gd /TP /analyze- /FC C:\USERS\ANTHON_PC\DESKTOP\ANTHONGAR_LESSON13\MTSERVER\MTSERVER\HELPER.CPP
^C:\USERS\ANTHON_PC\DESKTOP\ANTHONGAR_LESSON13\MTSERVER\MTSERVER\CLIENT.CPP
/c /ZI /nologo /W3 /WX- /diagnostics:classic /sdl /Od /Oy- /D _MBCS /Gm- /EHsc /RTC1 /MDd /GS /fp:precise /permissive- /Zc:wchar_t /Zc:forScope /Zc:inline /Fo"DEBUG\\" /Fd"DEBUG\VC141.PDB" /Gd /TP /analyze- /FC C:\USERS\ANTHON_PC\DESKTOP\ANTHONGAR_LESSON13\MTSERVER\MTSERVER\CLIENT.CPP
^C:\USERS\ANTHON_PC\DESKTOP\ANTHONGAR_LESSON13\MTSERVER\MTSERVER\WSAINITIALIZER.CPP
/c /ZI /nologo /W3 /WX- /diagnostics:classic /sdl /Od /Oy- /D _MBCS /Gm- /EHsc /RTC1 /MDd /GS /fp:precise /permissive- /Zc:wchar_t /Zc:forScope /Zc:inline /Fo"DEBUG\\" /Fd"DEBUG\VC141.PDB" /Gd /TP /analyze- /FC C:\USERS\ANTHON_PC\DESKTOP\ANTHONGAR_LESSON13\MTSERVER\MTSERVER\WSAINITIALIZER.CPP
^C:\USERS\ANTHON_PC\DESKTOP\ANTHONGAR_LESSON13\MTSERVER\MTSERVER\MAIN.CPP
/c /ZI /nologo /W3 /WX- /diagnostics:classic /sdl /Od /Oy- /D _MBCS /Gm- /EHsc /RTC1 /MDd /GS /fp:precise /permissive- /Zc:wchar_t /Zc:forScope /Zc:inline /Fo"DEBUG\\" /Fd"DEBUG\VC141.PDB" /Gd /TP /analyze- /FC C:\USERS\ANTHON_PC\DESKTOP\ANTHONGAR_LESSON13\MTSERVER\MTSERVER\MAIN.CPP
^C:\USERS\ANTHON_PC\DESKTOP\ANTHONGAR_LESSON13\MTSERVER\MTSERVER\SERVER.CPP
/c /ZI /nologo /W3 /WX- /diagnostics:classic /sdl /Od /Oy- /D _MBCS /Gm- /EHsc /RTC1 /MDd /GS /fp:precise /permissive- /Zc:wchar_t /Zc:forScope /Zc:inline /Fo"DEBUG\\" /Fd"DEBUG\VC141.PDB" /Gd /TP /analyze- /FC C:\USERS\ANTHON_PC\DESKTOP\ANTHONGAR_LESSON13\MTSERVER\MTSERVER\SERVER.CPP
